…
### The structure

**TrenchR** comes with four trench datasets: `t13.trench1`,
`t13.trench2`, `t15.trench1`, and `t15.trench2` (Münch et
al. [2016](https://doi.org/10.5194/cp-12-1565-2016),
[2017](https://doi.org/10.5194/tc-11-2175-2017)). Since `t13.trench2` is
the smallest of these four, it is easiest to have a look at this dataset
to understand the generic structure:

``` r
t13.trench2
#> # A tibble: 152 × 8
#>    profileName profilePosition surfaceHeight sampleNumber depth  d18O    dD
#>    <chr>                 <dbl>         <dbl>        <int> <dbl> <dbl> <dbl>
#>  1 T13-2-01                0.3             4            1   1.5  NA     NA 
#>  2 T13-2-01                0.3             4            2   4.5 -40.4 -327.
#>  3 T13-2-01                0.3             4            3   7.5 -43.6 -346.
#>  4 T13-2-01                0.3             4            4  10.5 -43.7 -346 
#>  5 T13-2-01                0.3             4            5  13.5 -43.3 -342.
#>  6 T13-2-01                0.3             4            6  16.5 -47.0 -370.
#>  7 T13-2-01                0.3             4            7  19.5 -49.7 -389.
#>  8 T13-2-01                0.3             4            8  22.5 -46.8 -363.
#>  9 T13-2-01                0.3             4            9  25.5 -46.0 -358.
#> 10 T13-2-01                0.3             4           10  28.5 -40.3 -313.
#> # ℹ 142 more rows
#> # ℹ 1 more variable: dxs <dbl>
```
…
### Two-dimensional dataset

The inherent two-dimensional structure of a trench dataset can be
directly visualised in matrix form; while this matrix representation is
currently not needed for using any of the below **TrenchR** functions,
since they all accept the generic dataset structure as input, it might
be handy for external functions and usage.

``` r
make2D(t13.trench2)
#> # A tibble: 38 × 4
#>    `T13-2-01` `T13-2-02` `T13-2-03` `T13-2-04`
#>         <dbl>      <dbl>      <dbl>      <dbl>
#>  1       NA         NA         NA        -39.4
#>  2      -40.4       NA        -40.0      -44.6
#>  3      -43.6       NA        -43.2      -47.1
#>  4      -43.7      -37.8      -45.9      -48.0
#>  5      -43.3      -42.3      -47.7      -47.0
#>  6      -47.0      -47.0      -48.0      -46.3
#>  7      -49.7      -49.3      -47.3      -42.2
#>  8      -46.8      -47.4      -47.6      -39.8
#>  9      -46.0      -40.5      -46.4      -39.2
#> 10      -40.3      -39.0      -42.7      -39.5
#> # ℹ 28 more rows

# Note: use simplify = TRUE to really have the output class `matrix`
```

The default is to extract the data column labelled `d18O`; to extract
any other data column, use

``` r
make2D(t13.trench2, .var = "dxs") # insert your data column name for `.var`
#> # A tibble: 38 × 4
#>    `T13-2-01` `T13-2-02` `T13-2-03` `T13-2-04`
#>         <dbl>      <dbl>      <dbl>      <dbl>
#>  1       NA         NA         NA         -4.6
#>  2       -4.5       NA         -3          2.1
#>  3        2.6       NA          2.1        6.3
#>  4        3.8       -2.7        4.2        5.9
#>  5        4.3        1          5.8        7.9
#>  6        6.2        7          7         10.1
#>  7        8.8        8.4        9          7  
#>  8       11.3        6.1       11.4        2  
#>  9       10.5        5.9       11.4        1  
#> 10        8.8        5.1        5.9        3.5
#> # ℹ 28 more rows
```

### Trench mean

The mean profile from averaging in horizontal direction across all
available profiles can be obtained directly from

``` r
makeMean(t13.trench2)
#> # A tibble: 38 × 2
#>    depth  d18O
#>    <dbl> <dbl>
#>  1   1.5  NA  
#>  2   4.5  NA  
#>  3   7.5  NA  
#>  4  10.5 -43.9
#>  5  13.5 -45.1
#>  6  16.5 -47.1
#>  7  19.5 -47.2
#>  8  22.5 -45.4
#>  9  25.5 -43.1
#> 10  28.5 -40.4
#> # ℹ 28 more rows
```
…
